ABC Components Pte Ltd,67889088, sales@abc.com
Cool Store Pte Ltd,68779077,sales@cool.com
First Parts Inc,68667788, buy@firstparts.com
Just Technology Pte Ltd,69698866,sales_dep@just.com
Gold Mountain Pte Ltd,68667689,sales.rep01@goldmountain.com
